Getting Started
…
## 

## ── Diagnostics ─────────────────────────────────────────────────────────────────

## ✔ Returned dataframe with 207 rows

## ✔ Using 643.3 kB at /tmp/RtmpzNq9wm/yf_cache for cache files

## ℹ Out of 3 tickers, you got 3

## ✔ You got data on 100% of requested tickers

print(df_yf_multiple)

## # A tibble: 207 × 11
##    ticker ref_date   price_open price_high price_low price_close   volume
##  * <chr>  <date>          <dbl>      <dbl>     <dbl>       <dbl>    <dbl>
##  1 FB     2022-02-28       208.       213.      207.        211. 34239800
##  2 FB     2022-03-01       210.       212.      202.        203. 27094900
##  3 FB     2022-03-02       205.       209.      202.        208. 29452100
##  4 FB     2022-03-03       209.       209.      201.        203. 27263500
##  5 FB     2022-03-04       202.       206.      199.        200. 32130900
##  6 FB     2022-03-07       201.       201.      187.        187. 38560600
##  7 FB     2022-03-08       188.       197.      186.        190. 37508100
##  8 FB     2022-03-09       196.       199.      194.        198. 31894700
##  9 FB     2022-03-10       195.       196.      191.        195. 24853000
## 10 FB     2022-03-11       193.       194.      187.        188. 34694500
## # … with 197 more rows, and 4 more variables: price_adjusted <dbl>,
## #   ret_adjusted_prices <dbl>, ret_closing_prices <dbl>,
## #   cumret_adjusted_prices <dbl>
…
