Download financial data from Yahoo Finance — yf_get • yfR
…
print(df_yf)
#> # A tibble: 42 × 11
#>    ticker ref_date   price_open price_high price_low price_close  volume
#>  * <chr>  <date>          <dbl>      <dbl>     <dbl>       <dbl>   <dbl>
#>  1 MMM    2025-09-08       155.       155.      152         154  2715500
#>  2 MMM    2025-09-09       154.       154.      152.        153. 1669200
#>  3 MMM    2025-09-10       153.       155.      152.        154. 2811600
#>  4 MMM    2025-09-11       154.       160.      153.        159. 3663900
#>  5 MMM    2025-09-12       159.       162.      158.        158. 2865100
#>  6 MMM    2025-09-15       158        158.      155.        157. 3219500
#>  7 MMM    2025-09-16       157.       157.      154.        156. 2208600
#>  8 MMM    2025-09-17       156.       159.      154.        155. 2757300
#>  9 MMM    2025-09-18       155.       157.      154.        155. 1795000
#> 10 MMM    2025-09-19       156.       157.      155.        157. 6507100
#> # ℹ 32 more rows
#> # ℹ 4 more variables: price_adjusted <dbl>, ret_adjusted_prices <dbl>,
#> #   ret_closing_prices <dbl>, cumret_adjusted_prices <dbl>
…
